rabablog - bikeshare prediction
…
library(readr)
bikeshare_train <- read_csv("bikeshare_train.csv")

Rows: 6568 Columns: 14
── Column specification ────────────────────────────────────────────────────────
Delimiter: ","
chr  (4): date, season, holiday, func
dbl (10): count, hour, temp, humidity, windspeed, visibility, dewpointtemp, ...

ℹ Use `spec()` to retrieve the full column specification for this data.
ℹ Specify the column types or set `show_col_types = FALSE` to quiet this message.

bikeshare_train

# A tibble: 6,568 × 14
   date       count  hour  temp humidity windspeed visibility dewpointtemp solar
   <chr>      <dbl> <dbl> <dbl>    <dbl>     <dbl>      <dbl>        <dbl> <dbl>
 1 01/12/2017   173     2  -6         39       1         2000        -17.7     0
 2 01/12/2017   107     3  -6.2       40       0.9       2000        -17.6     0
 3 01/12/2017    78     4  -6         36       2.3       2000        -18.6     0
 4 01/12/2017   100     5  -6.4       37       1.5       2000        -18.7     0
 5 01/12/2017   181     6  -6.6       35       1.3       2000        -19.5     0
 6 02/12/2017   167     3  -3.5       81       2.2       1221         -6.2     0
 7 02/12/2017    89     4  -3.8       79       2         1167         -6.9     0
 8 02/12/2017    70     6  -4.3       82       2.1       1178         -6.9     0
 9 02/12/2017   146     7  -4.4       81       2.5       1276         -7.1     0
10 03/12/2017    32     5   3.9       75       1.9        914         -0.1     0
# ℹ 6,558 more rows
# ℹ 5 more variables: rain <dbl>, snow <dbl>, season <chr>, holiday <chr>,
#   func <chr>
…
model_set %>% 
  collect_metrics() %>% 
  arrange(-mean)

# A tibble: 80 × 9
   wflow_id      .config    preproc model .metric .estimator  mean     n std_err
   <chr>         <chr>      <chr>   <chr> <chr>   <chr>      <dbl> <int>   <dbl>
 1 rec81_xgboost Preproces… recipe  boos… rmse    standard    273.    15    2.42
 2 rec81_xgboost Preproces… recipe  boos… rmse    standard    270.    15    2.74
 3 rec81_xgboost Preproces… recipe  boos… rmse    standard    267.    15    3.25
 4 rec72_xgboost Preproces… recipe  boos… rmse    standard    267.    15    2.56
 5 rec72_xgboost Preproces… recipe  boos… rmse    standard    266.    15    2.68
 6 rec81_xgboost Preproces… recipe  boos… rmse    standard    249.    15    3.37
 7 rec72_xgboost Preproces… recipe  boos… rmse    standard    244.    15    2.87
 8 rec72_xgboost Preproces… recipe  boos… rmse    standard    243.    15    3.22
 9 rec72_cubist  Preproces… recipe  cubi… rmse    standard    200.    15    3.25
10 rec81_cubist  Preproces… recipe  cubi… rmse    standard    188.    15    3.16
# ℹ 70 more rows
…
model_set2 %>% 
  collect_metrics() %>% 
  arrange(-mean)

# A tibble: 40 × 9
   wflow_id      .config    preproc model .metric .estimator  mean     n std_err
   <chr>         <chr>      <chr>   <chr> <chr>   <chr>      <dbl> <int>   <dbl>
 1 rec81_xgboost Preproces… recipe  boos… rmse    standard    274.    15    2.03
 2 rec81_xgboost Preproces… recipe  boos… rmse    standard    272.    15    2.24
 3 rec81_xgboost Preproces… recipe  boos… rmse    standard    260.    15    1.87
 4 rec81_xgboost Preproces… recipe  boos… rmse    standard    242.    15    1.89
 5 rec81_cubist  Preproces… recipe  cubi… rmse    standard    183.    15    2.65
 6 rec81_cubist  Preproces… recipe  cubi… rmse    standard    169.    15    2.57
 7 rec81_xgboost Preproces… recipe  boos… rmse    standard    160.    15    2.33
 8 rec81_xgboost Preproces… recipe  boos… rmse    standard    159.    15    2.10
 9 rec81_xgboost Preproces… recipe  boos… rmse    standard    159.    15    2.24
10 rec81_xgboost Preproces… recipe  boos… rmse    standard    151.    15    2.48
# ℹ 30 more rows
…
